module github.com/marceloeduardo244/api-rest-golang-with-gin-and-tests

go 1.16

require (
	github.com/cpuguy83/go-md2man/v2 v2.0.2 // indirect
	github.com/gin-gonic/gin v1.7.7
	github.com/go-openapi/spec v0.20.5 // indirect
	github.com/go-openapi/swag v0.21.1 // indirect
	github.com/go-playground/validator/v10 v10.10.1 // indirect
	github.com/golang/protobuf v1.5.2 // indirect
	github.com/jinzhu/now v1.1.4 // indirect
	github.com/json-iterator/go v1.1.12 // indirect
	github.com/mailru/easyjson v0.7.7 // indirect
	github.com/mattn/go-isatty v0.0.14 // indirect
	github.com/modern-go/concurrent v0.0.0-20180306012644-bacd9c7ef1dd // indirect
	github.com/stretchr/testify v1.7.1 // indirect
	github.com/swaggo/files v0.0.0-20210815190702-a29dd2bc99b2 // indirect
	github.com/swaggo/gin-swagger v1.4.3 // indirect
	github.com/swaggo/swag v1.8.1 // indirect
	github.com/ugorji/go v1.2.7 // indirect
	github.com/urfave/cli/v2 v2.5.1 // indirect
	golang.org/x/crypto v0.0.0-20220427172511-eb4f295cb31f // indirect
	golang.org/x/net v0.0.0-20220425223048-2871e0cb64e4 // indirect
	golang.org/x/sys v0.0.0-20220422013727-9388b58f7150 // indirect
	golang.org/x/text v0.3.7 // indirect
	golang.org/x/tools v0.1.10 // indirect
	golang.org/x/xerrors v0.0.0-20200804184101-5ec99f83aff1 // indirect
	google.golang.org/protobuf v1.28.0 // indirect
	gopkg.in/validator.v2 v2.0.1 // indirect
	gopkg.in/yaml.v2 v2.4.0 // indirect
	gorm.io/driver/postgres v1.2.3
	gorm.io/gorm v1.22.4 // indirect
)
